<?xml version="1.0" standalone="no"?>
<!DOCTYPE svg PUBLIC "-//W3C//DTD SVG 1.1//EN" "http://www.w3.org/Graphics/SVG/1.1/DTD/svg11.dtd" >
<svg xmlns="http://www.w3.org/2000/svg">
<metadata>Generated by IcoMoon</metadata>
<defs>
<font id="icomoon" horiz-adv-x="1024">
<font-face units-per-em="1024" ascent="960" descent="-64" />
<missing-glyph horiz-adv-x="1024" />
<glyph unicode="&#x20;" d="" horiz-adv-x="512" />
<glyph unicode="&#xe600;" d="M817.976 547.562c-17.168-57.942 43.294-88.733 47.212-78.283 4.665 12.41-14.042 45.673 11.057 70.725 46.419 46.373 120.504-54.49 65.034-100.396-61.768-51.038-157.779-36.995-186.89 37.229-1.446 14.975-4.199 29.718-8.304 43.947 42.454 71.752 123.069 131.56 96.944 196.454-49.825 124.003-193.841 33.963-157.452-33.543 19.594-36.436 63.774-22.253 60.648-15.209-3.686 8.304-28.831 15.395-28.738 39.655 0.14 44.973 84.814 31.817 80.009-17.308-5.178-53.417-56.31-92.325-105.248-73.571-11.57 12.596-24.493 24.026-38.722 34.010-31.351 118.171-9.377 270.212-104.129 304.875-172.381 63.168-234.802-165.803-127.501-197.574 57.989-17.215 88.78 43.247 78.283 47.166-12.41 4.665-45.626-14.042-70.679 11.057-46.373 46.419 54.49 120.504 100.396 64.987 51.318-62.001 36.902-158.572-38.208-187.263-18.148-1.773-35.783-5.505-52.717-11.057-69.046 43.154-129.741 114.392-192.815 89.060-123.909-49.872-31.537-189.736 35.922-153.394 36.482 19.687 22.253 63.867 15.209 60.788-8.211-3.779-15.349-28.831-39.655-28.785-44.926 0.14-31.724 84.814 17.401 80.009 51.504-4.992 89.62-52.857 75.251-100.21-12.503-11.663-23.886-24.773-33.823-39.188-117.891-30.744-265.966-8.491-303.195-103.709-71.192-182.225 165.85-234.896 197.667-127.548 17.168 57.989-43.294 88.733-47.212 78.283-4.665-12.41 14.042-45.626-11.057-70.679-46.419-46.419-120.504 54.537-65.034 100.35 62.048 51.318 158.525 36.902 187.263-38.068 1.819-17.121 5.412-33.73 10.73-49.545-43.387-68.346-117.378-126.195-92.232-188.803 49.872-123.909 193.888-33.916 157.546 33.543-19.687 36.482-63.867 22.3-60.742 15.209 3.779-8.211 28.831-15.349 28.738-39.655-0.14-44.926-84.814-31.724-80.009 17.401 4.992 51.178 52.251 89.106 99.323 75.531 11.57-12.13 24.399-23.233 38.442-33.17 32.19-118.544 9.564-266.806 104.688-307.067 173.314-62.235 234.896 165.85 127.548 197.714-58.036 17.121-88.826-43.294-78.283-47.212 12.41-4.665 45.626 13.996 70.632-11.057 46.466-46.466-54.49-120.55-100.396-65.034-51.131 61.861-36.902 158.106 37.649 187.077 19.687 1.726 38.908 6.111 57.243 12.643 69.512-43.060 128.108-119.291 191.462-93.865 124.003 49.918 33.963 193.888-33.543 157.499-36.436-19.641-22.253-63.821-15.162-60.695 8.258 3.686 15.349 28.831 39.608 28.738 45.020-0.14 31.817-84.814-17.308-80.009-54.723 5.272-94.285 58.969-71.985 109.074 8.118 8.537 15.675 17.681 22.487 27.338 118.078 31.211 264.707 14.042 304.268 103.989 78.656 178.726-165.757 234.849-197.62 127.548zM551.916 267.554c-100.49-20.154-205.085 48.379-224.585 149.941-19.874 103.289 46.699 204.945 150.688 224.585 103.149 20.107 203.125-46.839 223.699-149.941 20.667-103.429-46.373-203.965-149.801-224.585z" horiz-adv-x="1031" />
<glyph unicode="&#xe601;" d="M841.477 481.204l-272.189 156.948c-8.799 5.085-20.111 5.085-29.024-0.057-8.913-5.199-14.455-14.855-14.455-25.139v-68.333c-90.672-5.771-176.603-39.137-250.363-96.957v191.058h67.647c10.398 0 19.997 5.599 25.025 14.398 5.314 8.97 5.314 20.168 0.057 29.139l-157.12 272.017c-9.827 17.14-40.337 17.083-50.221 0l-156.891-271.96c-5.256-9.027-5.256-20.226 0-29.024 5.142-8.97 14.741-14.569 25.082-14.569h67.419v-666.531c0-15.998 13.084-29.081 29.024-29.081h121.011c15.941 0 28.967 13.084 28.967 29.081v121.868c0 143.408 73.418 214.14 250.363 277.902v-73.018c0-10.398 5.599-20.054 14.341-24.968 8.856-5.371 20.568-5.314 29.196-0.171l272.074 157.177c8.97 5.028 14.569 14.626 14.569 25.025 0 10.341-5.371 19.711-14.512 25.196zM583.8 349.109v53.306c0 15.998-13.084 30.567-29.024 29.081-192.772-18.569-333.78-191.8-337.265-194.143v-236.137h-63.019v251.049c-0.857 4.285-0.8 8.627 0 13.027v402.57c0 15.941-13.084 28.967-29.024 28.967h-46.336l106.784 185.059 106.899-185.059h-46.393c-15.998 0-29.024-13.027-29.024-28.967v-331.037c10.227 9.713 189.744 158.32 337.265 150.778 15.941-0.857 29.024 13.027 29.024 29.024v46.336l185.116-106.784-185.001-107.070z" horiz-adv-x="856" />
<glyph unicode="&#xe602;" d="M858.936 383.905c-17.636 8.377-40.067 1.102-49.491-16.093-49.602-88.512-143.404-143.514-244.812-143.514s-195.21 55.003-244.757 143.514c-9.535 17.195-33.013 24.084-49.271 16.313-267.519-121.91-270.605-399.955-270.605-402.766 0-10.306 4.023-19.896 10.637-26.344 6.999-7.661 16.809-11.904 27.612-11.904h1052.824c10.857 0 20.778 4.244 26.895 11.133 7.22 7.165 11.188 16.754 11.188 27.060-0.055 2.811-3.031 280.856-270.219 402.601zM1049.352 19.277h-969.548c10.361 70.269 49.161 201.218 192.84 280.305 67.017-95.401 174.929-151.836 291.934-151.836 117.060 0 224.971 56.381 291.989 151.836 143.569-79.087 182.424-210.036 192.785-280.305zM564.578 258.798c137.176 0 248.835 111.549 248.835 248.725v210.862c0 137.121-111.604 248.725-248.835 248.725-137.176 0-248.725-111.549-248.725-248.725v-210.862c0-137.121 111.549-248.725 248.725-248.725zM564.578 890.559c95.070 0 172.394-77.213 172.394-172.173v-210.862c0-94.96-77.324-172.173-172.394-172.173-95.015 0-172.338 77.213-172.338 172.173v210.862c0 94.96 77.324 172.173 172.338 172.173z" horiz-adv-x="1129" />
<glyph unicode="&#xe603;" d="M812.074 796.201c7.182 15.711 10.661 31.197 10.661 46.683 0 68.51-55.661 124.227-124.114 124.227-68.566 0-124.283-55.717-124.283-124.227 0-15.43 3.535-30.972 10.661-46.627-334.862-55.1-584.999-347.767-584.999-688.689v-120.636c0-24.127 19.694-43.822 43.878-43.822h1309.373c24.183 0 43.822 19.751 43.822 43.822v120.636c0 340.866-250.137 633.533-584.999 688.633zM89.27 151.334c22.668 319.207 287.674 567.268 609.406 567.268 321.62 0 586.57-248.060 609.238-567.268h-1218.644zM698.62 879.468c20.199 0 36.696-16.384 36.696-36.583 0-20.087-16.44-36.527-36.696-36.527-20.199 0-36.64 16.44-36.64 36.527 0.056 20.199 16.496 36.583 36.64 36.583zM1309.429 63.691v-32.88h-1221.73v32.88h1221.73zM695.703 628.882c-138.030 0-268.709-53.697-366.844-151.384-12.007-11.783-12.007-30.972-0.224-42.98 5.892-5.892 13.579-8.978 21.546-8.978 7.743 0 15.486 2.974 21.322 8.865 86.802 86.297 202.219 133.709 321.676 133.821 18.46-1.683 34.283 12.12 34.283 30.131 0 16.721-15.037 30.524-31.758 30.524v0zM350.18 412.075c-11.671 0-22.724 4.545-31.085 12.849-8.36 8.529-12.905 19.694-12.793 31.534 0.112 11.615 4.769 22.5 13.13 30.692 100.548 100.1 234.201 155.255 376.271 155.255 24.52 0 45.224-20.087 45.224-43.99 0-11.951-4.713-23.005-13.354-31.253-8.36-8.136-19.526-12.512-31.421-12.512v0l-4.208 0.168c-115.922-0.168-226.795-46.29-310.959-129.894-8.136-8.304-19.077-12.849-30.804-12.849zM695.703 615.416c-134.887 0-261.807-52.35-357.362-147.512-3.254-3.142-5.050-7.294-5.106-11.727 0-4.601 1.739-8.921 4.994-12.232 6.284-6.284 17.394-6.34 23.678-0.056 89.326 88.821 206.932 137.693 331.271 137.805 7.182 0.617 12.344 1.683 15.711 4.825 3.254 3.198 5.050 7.406 5.050 11.839 0 8.978-8.641 17.057-18.236 17.057z" horiz-adv-x="1397" />
<glyph unicode="&#xe604;" d="M785.516-56.889h-751.285c-12.483 0-23.981 6.789-30.003 17.739s-5.585 24.309 1.15 34.876c86.998 136.712 234.715 219.275 396.338 222.013 2.738 3.23 6.187 6.351 10.622 9.253l215.826 373.836c0 0.767 0 1.533 0 2.3-23.597 6.734-48.728 1.533-67.617-12.866-11.005-8.486-26.006-9.417-37.942-2.464-11.99 6.953-18.615 20.422-16.808 34.109 4.106 30.77-10.676 60.773-37.668 76.432-26.006 15.002-60.937 12.702-85.027-5.639-12.976-9.855-31.153-9.362-43.362 1.424s-15.221 28.689-7.008 42.815c79.005 136.766 226.393 221.739 384.622 221.739 55.243 0 108.899-10.019 159.926-29.894l2.738 4.763c17.958 31.372 61.704 43.089 93.295 25.076 15.878-9.143 27.211-23.926 31.919-41.61s2.245-36.081-6.953-51.903l-2.683-4.709c167.974-135.233 215.443-378.216 106.106-567.433-8.158-14.126-25.13-20.531-40.625-15.275-15.44 5.256-25.076 20.696-22.886 36.902 4.106 30.77-10.731 60.773-37.668 76.432-26.116 15.056-60.992 12.702-85.027-5.639-11.005-8.486-26.006-9.417-37.942-2.464-11.99 6.953-18.615 20.422-16.808 34.109 4.106 30.77-10.676 60.773-37.668 76.432-10.129 5.804-21.517 8.979-33.89 9.417l-188.068-325.71c87.655-38.052 162.39-101.398 213.308-181.388 6.734-10.512 7.118-23.871 1.15-34.821s-17.575-17.849-30.058-17.849zM102.723 11.549h614.026c-47.14 52.506-107.968 92.638-176.132 115.523-9.746 3.285-17.465 10.731-21.134 20.367-3.614 9.581-2.792 20.312 2.354 29.182l217.25 376.19c5.201 9.034 14.29 15.221 24.638 16.754 32.522 4.873 66.029-1.15 93.514-16.918 34.164-19.71 57.926-51.63 67.671-87.929 36.573 9.746 76.87 4.49 109.775-14.564 17.301-10.019 31.919-23.159 43.472-38.38 42.541 150.783-13.359 318.812-146.895 411.285-13.961 9.691-18.615 28.087-11.279 43.143-9.362-13.907-27.594-18.944-42.979-11.826-50.37 23.816-104.135 35.807-159.762 35.807-102.767 0-200.113-42.322-270.029-114.319 19.382-2.354 38.161-8.596 55.079-18.396 34.109-19.71 57.926-51.575 67.617-87.929 36.519 9.8 76.87 4.599 109.829-14.509 6.351-3.614 23.050-13.304 25.24-33.233 0.821-7.556-2.3-17.192-6.953-24.857 0.438-6.734-1.040-13.578-4.49-19.546l-226.94-392.998c-2.957-5.201-7.227-9.417-12.319-12.428-11.552-22.667-35.971-22.667-44.567-22.667-118.918 0.055-229.678-50.48-306.985-137.752z" horiz-adv-x="1161" />
<glyph unicode="&#xe605;" d="M1431.438 329.382l-25.638 31.411c-47.258 57.842-114.495 91.007-184.505 91.007-13.753 0-27.336-1.698-40.806-4.245 12.168 6.905 26.544 8.886 44.824 4.528 30.279-7.301 54.672 6.056 62.086 30.788 21.563 72.387-180.713 295.603-297.301 381.913 0.736 4.528 1.358 9.055 1.358 13.81 0 48.786-39.221 88.517-87.385 88.517s-87.385-39.731-87.385-88.517c0-48.843 39.165-88.573 87.385-88.573 1.868 0 3.566 0.453 5.433 0.566 75.5-135.152 92.139-265.834 42.9-352.256-42.051-73.858-129.493-112.853-252.703-112.853-25.185 0-46.126 1.019-64.86 1.811-2.943 0.17-5.886 0.283-8.772 0.453-0.453 38.938 0.057 71.934 14.602 86.649 12.338 12.508 39.391 18.79 80.367 18.79 27.506 0 51.673 11.829 67.972 33.335 13.074 17.319 20.318 39.957 20.318 63.954 0 57.615-39.391 101.025-88.8 101.025-0.057 0-0.113 0-0.17 0l-189.485 15.055c-22.752 0-40.297 0.113-55.748 0.226v262.042h-475.127v-325.656h226.329c-38.655-32.996-64.35-74.707-70.463-115.344-71.878-62.143-82.574-156.15-60.049-225.028 8.32-25.412 20.997-47.315 36.448-65.765-0.226-4.245-0.566-8.376-0.566-12.734 0-121.909 88.517-221.179 197.352-221.179 98.874 0 180.203 82.235 194.352 188.749h256.495c71.991 0 135.888 19.073 192.088 55.691-1.754-31.354 1.019-63.331 8.942-94.856l12.451-49.635 51.899 33.958c34.467-68.595 99.44-112.627 171.431-112.627 108.835 0 197.352 99.214 197.352 221.179 0 40.24-10.244 79.518-28.581 113.759l45.956 30.053zM1319.942 343.588l-275.738-180.147c-1.302 45.221 10.244 88.913 31.807 125.418 6.961 9.452 13.979 18.79 20.488 29.147 11.376 13.187 24.336 24.902 38.938 34.467 26.317 17.319 55.974 26.431 85.8 26.431 35.203 0 69.67-12.564 98.704-35.316zM904.015 894.215c8.037 0 14.489-7.018 14.489-15.621 0-8.659-6.509-15.677-14.489-15.677s-14.489 7.018-14.489 15.677c0 8.603 6.509 15.621 14.489 15.621zM72.839 835.864h329.278v-179.864h-329.278v179.864zM329.051 16.007c-55.182 0-102.1 43.070-118.343 102.44 8.829-2.49 17.941-4.245 27.28-5.263 17.205-36.561 52.069-61.011 91.064-61.011 44.768 0 82.97 31.751 96.78 75.726h23.827c-13.696-64.237-62.539-111.891-120.607-111.891zM329.051 125.069c-2.151 0-4.132 0.849-6.169 1.415 5.943 1.868 11.885 3 17.941 5.377h3.566c-4.528-3.962-9.621-6.792-15.338-6.792zM779.899 204.756h-453.734l-6.848-2.886c-70.972-30.392-132.266-3.452-154.225 63.558-15.734 47.994-7.188 114.381 47.371 154.339l14.885 10.923v18.45c0 46.975 65.312 120.494 163.677 124.173 14.262 0.509 26.827 0.679 41.429 0.679l31.751-0.113c17.488-0.17 38.769-0.34 63.671-0.17l189.485-15.055c18.79 0 18.96-27.11 18.96-28.242 0-7.924-2.037-15.338-5.49-19.922-2.094-2.773-4.471-4.471-9.848-4.471-62.935 0-104.986-12.904-132.266-40.523-36.958-37.467-36.222-90.781-35.486-147.321l0.226-62.483h36.448c13.074 0 26.544-0.679 41.429-1.358 19.696-0.906 41.768-1.868 68.255-1.868 190.73 0 277.153 81.386 316.035 149.698 53.597 94.063 50.371 219.481-7.075 353.275 81.782-74.481 162.998-174.317 194.465-228.027-81.952-1.189-116.928-73.123-138.265-116.985-9.225-18.96-19.016-36.278-29.204-52.578-6.056-7.584-11.319-15.734-16.583-24.054-61.973-86.14-140.586-129.040-239.064-129.040zM1216.654 37.231c-44.145 0-84.668 28.411-106.798 72.84l21.563 14.036c18.337-30.562 49.861-50.654 85.234-50.654 56.483 0 102.383 50.314 102.383 112.061 0 18.733-4.301 36.957-12.225 53.087l20.884 13.64c8.772-20.601 13.413-43.466 13.413-66.784 0.057-81.669-55.804-148.226-124.456-148.226zM1246.141 185.57c0-21.28-13.47-39.221-29.487-39.221-11.885 0-22.356 10.697-26.714 25.242l51.842 33.901c2.717-5.999 4.358-12.734 4.358-19.922z" horiz-adv-x="1431" />
<glyph unicode="&#xe606;" d="M670.701 634.988c-141.659 0-256.878-115.332-256.878-257.104s115.218-256.821 256.878-256.821c141.772 0 257.104 115.049 257.104 256.821s-115.332 257.104-257.104 257.104zM670.701 167.433c-116.068 0-210.507 94.439-210.507 210.451 0 116.124 94.439 210.677 210.507 210.677 116.238 0 210.62-94.553 210.62-210.677 0-116.011-94.383-210.451-210.62-210.451z" horiz-adv-x="1342" />
<glyph unicode="&#xe607;" d="M670.701 99.831c-153.323 0-278.109 124.73-278.109 278.053 0 153.492 124.787 278.336 278.109 278.336 153.492 0 278.336-124.844 278.336-278.336 0-153.323-124.844-278.053-278.336-278.053zM670.701 613.756c-129.939 0-235.646-105.82-235.646-235.872 0-129.939 105.707-235.589 235.646-235.589 130.052 0 235.872 105.65 235.872 235.589 0 130.052-105.763 235.872-235.872 235.872zM670.701 146.201c-127.788 0-231.739 103.951-231.739 231.682 0 127.901 103.951 231.909 231.739 231.909 127.844 0 231.852-104.008 231.852-231.909 0-127.731-103.951-231.682-231.852-231.682zM670.701 567.329c-104.348 0-189.275-84.984-189.275-189.445 0-104.348 84.928-189.219 189.275-189.219 104.461 0 189.388 84.871 189.388 189.219 0 104.461-84.928 189.445-189.388 189.445z" horiz-adv-x="1342" />
<glyph unicode="&#xe608;" d="M1297.127 812.939h-366.038l-64.771 129.543c-7.643 15.174-22.817 24.629-39.633 24.629h-311.741c-16.589 0-32.216-9.682-39.746-24.686l-64.715-129.486h-87.815v33.518c0 24.516-19.93 44.445-44.445 44.445h-155.87c-24.572 0-44.502-19.986-44.502-44.445v-33.518h-33.461c-24.516 0-44.389-19.986-44.389-44.445v-780.937c0-24.516 19.93-44.445 44.389-44.445h1252.738c24.459 0 44.389 19.986 44.389 44.445v780.937c0 24.459-19.93 44.445-44.389 44.445zM1252.681 724.048v-692.216h-1163.904v692.216h349.109c16.986 0 32.272 9.455 39.803 24.629l64.771 129.43h256.821l64.715-129.373c7.417-15.004 23.044-24.686 39.689-24.686h348.996z" horiz-adv-x="1342" />
</font></defs></svg>