<?xml version="1.0" encoding="UTF-8" standalone="no"?>
<!-- Generator: Adobe Illustrator 15.1.0, SVG Export Plug-In . SVG Version: 6.00 Build 0)  -->

<svg
   xmlns:dc="http://purl.org/dc/elements/1.1/"
   xmlns:cc="http://creativecommons.org/ns#"
   xmlns:rdf="http://www.w3.org/1999/02/22-rdf-syntax-ns#"
   xmlns:svg="http://www.w3.org/2000/svg"
   xmlns="http://www.w3.org/2000/svg"
   xmlns:sodipodi="http://sodipodi.sourceforge.net/DTD/sodipodi-0.dtd"
   xmlns:inkscape="http://www.inkscape.org/namespaces/inkscape"
   version="1.1"
   id="Isolation_Mode"
   x="0px"
   y="0px"
   width="14.982"
   height="17.922625"
   viewBox="0 0 14.982 17.922625"
   enable-background="new 0 0 595.28 841.89"
   xml:space="preserve"
   inkscape:version="0.48.4 r9939"
   sodipodi:docname="man.svg"><metadata
     id="metadata37"><rdf:RDF><cc:Work
         rdf:about=""><dc:format>image/svg+xml</dc:format><dc:type
           rdf:resource="http://purl.org/dc/dcmitype/StillImage" /><dc:title></dc:title></cc:Work></rdf:RDF></metadata><defs
     id="defs35" /><sodipodi:namedview
     pagecolor="#ffffff"
     bordercolor="#666666"
     borderopacity="1"
     objecttolerance="10"
     gridtolerance="10"
     guidetolerance="10"
     inkscape:pageopacity="0"
     inkscape:pageshadow="2"
     inkscape:window-width="1920"
     inkscape:window-height="1024"
     id="namedview33"
     showgrid="false"
     inkscape:zoom="2.2425732"
     inkscape:cx="-267.19922"
     inkscape:cy="-78.965317"
     inkscape:window-x="-5"
     inkscape:window-y="-10"
     inkscape:window-maximized="1"
     inkscape:current-layer="Isolation_Mode"
     fit-margin-top="0"
     fit-margin-left="0"
     fit-margin-right="0"
     fit-margin-bottom="0" /><g
     id="g3"
     transform="translate(-313.063,-719.63637)"><path
       d="m 175.886,726.714 c -2.502,0 -4.537,2.037 -4.537,4.541 0,2.504 2.035,4.536 4.537,4.536 2.504,0 4.541,-2.032 4.541,-4.536 0,-2.504 -2.037,-4.541 -4.541,-4.541 m 0,8.258 c -2.05,0 -3.718,-1.668 -3.718,-3.717 0,-2.051 1.668,-3.721 3.718,-3.721 2.053,0 3.72,1.67 3.72,3.721 0,2.049 -1.667,3.717 -3.72,3.717"
       id="path5"
       inkscape:connector-curvature="0"
       style="fill:#ffffff" /><path
       d="m 175.886,736.166 c -2.708,0 -4.912,-2.203 -4.912,-4.911 0,-2.711 2.204,-4.916 4.912,-4.916 2.711,0 4.916,2.205 4.916,4.916 0,2.708 -2.205,4.911 -4.916,4.911 z m 0,-9.077 c -2.295,0 -4.162,1.869 -4.162,4.166 0,2.295 1.867,4.161 4.162,4.161 2.297,0 4.166,-1.866 4.166,-4.161 0,-2.297 -1.868,-4.166 -4.166,-4.166 z m 0,8.258 c -2.257,0 -4.093,-1.836 -4.093,-4.092 0,-2.259 1.836,-4.096 4.093,-4.096 2.258,0 4.095,1.837 4.095,4.096 0,2.256 -1.836,4.092 -4.095,4.092 z m 0,-7.438 c -1.843,0 -3.343,1.501 -3.343,3.346 0,1.843 1.5,3.342 3.343,3.342 1.845,0 3.345,-1.499 3.345,-3.342 0,-1.845 -1.5,-3.346 -3.345,-3.346 z"
       id="path7"
       inkscape:connector-curvature="0" /></g><path
     d="m -126.113,3.9346251 h -6.465 l -1.144,-2.288 c -0.135,-0.268 -0.403,-0.435 -0.7,-0.435 h -5.506 c -0.293,0 -0.569,0.171 -0.702,0.436 l -1.143,2.287 h -1.551 v -0.592 c 0,-0.433 -0.352,-0.785 -0.785,-0.785 h -2.753 c -0.434,0 -0.786,0.353 -0.786,0.785 v 0.592 h -0.591 c -0.433,0 -0.784,0.353 -0.784,0.785 V 18.512625 c 0,0.433 0.352,0.785 0.784,0.785 h 22.126 c 0.432,0 0.784,-0.353 0.784,-0.785 V 4.7196251 c 0,-0.432 -0.352,-0.785 -0.784,-0.785 z m -0.785,1.57 V 17.730625 h -20.557 V 5.5046251 h 6.166 c 0.3,0 0.57,-0.167 0.703,-0.435 l 1.144,-2.286 h 4.536 l 1.143,2.285 c 0.131,0.265 0.407,0.436 0.701,0.436 h 6.164 z"
     id="path9"
     inkscape:connector-curvature="0" /><path
     d="m -90.509999,12.860625 -0.453,-0.555 c -0.835,-1.022 -2.023,-1.608 -3.26,-1.608 -0.243,0 -0.483,0.03 -0.721,0.075 0.215,-0.122 0.469,-0.157 0.792,-0.08 0.535,0.129 0.966,-0.107 1.097,-0.544 0.381,-1.2789999 -3.193,-5.2229999 -5.253,-6.7479999 0.013,-0.08 0.024,-0.16 0.024,-0.244 0,-0.862 -0.693,-1.564 -1.544,-1.564 -0.851001,0 -1.544001,0.702 -1.544001,1.564 0,0.863 0.692,1.565 1.544001,1.565 0.033,0 0.063,-0.008 0.096,-0.01 1.334,2.388 1.628,4.697 0.758,6.2239999 -0.743,1.305 -2.288001,1.994 -4.465001,1.994 -0.445,0 -0.815,-0.018 -1.146,-0.032 -0.052,-0.003 -0.104,-0.005 -0.155,-0.008 -0.008,-0.688 10e-4,-1.271 0.258,-1.531 0.218,-0.221 0.696,-0.332 1.42,-0.332 0.486,0 0.913,-0.209 1.201,-0.589 0.231,-0.306 0.359,-0.7059999 0.359,-1.1299999 0,-1.018 -0.696,-1.785 -1.569,-1.785 -0.001,0 -0.002,0 -0.003,0 l -3.348,-0.266 c -0.402,0 -0.712,-0.002 -0.985,-0.004 v -4.63 h -8.395 v 5.754 h 3.999 c -0.683,0.583 -1.137,1.32 -1.245,2.0379999 -1.27,1.098 -1.459,2.759 -1.061,3.976 0.147,0.449 0.371,0.836 0.644,1.162 -0.004,0.075 -0.01,0.148 -0.01,0.225 0,2.154 1.564,3.908 3.487,3.908 1.747,0 3.184,-1.453 3.434,-3.335 h 4.532 c 1.272,0 2.401001,-0.337 3.394001,-0.984 -0.031,0.554 0.018,1.119 0.158,1.676 l 0.22,0.877 0.917,-0.6 c 0.609,1.212 1.757,1.99 3.029,1.99 1.923,0 3.487,-1.753 3.487,-3.908 0,-0.711 -0.181,-1.405 -0.505,-2.01 l 0.812,-0.531 z m -1.97,-0.251 -4.872,3.183 c -0.023,-0.799 0.181,-1.571 0.562,-2.216 0.123,-0.167 0.247,-0.332 0.362,-0.515 0.201,-0.233 0.43,-0.44 0.688,-0.609 0.465,-0.306 0.989,-0.467 1.516,-0.467 0.622,0 1.231,0.222 1.744,0.624 z m -7.349,-9.7289999 c 0.142,0 0.256,0.124 0.256,0.276 0,0.153 -0.115,0.277 -0.256,0.277 -0.141,0 -0.256001,-0.124 -0.256001,-0.277 0,-0.152 0.115001,-0.276 0.256001,-0.276 z m -14.686001,1.031 h 5.818 v 3.178 h -5.818 v -3.178 z m 4.527,14.4859999 c -0.975,0 -1.804,-0.761 -2.091,-1.81 0.156,0.044 0.317,0.075 0.482,0.093 0.304,0.646 0.92,1.078 1.609,1.078 0.791,0 1.466,-0.561 1.71,-1.338 h 0.421 c -0.242,1.135 -1.105,1.977 -2.131,1.977 z m 0,-1.927 c -0.038,0 -0.073,-0.015 -0.109,-0.025 0.105,-0.033 0.21,-0.053 0.317,-0.095 h 0.063 c -0.08,0.07 -0.17,0.12 -0.271,0.12 z m 7.966,-1.408 h -8.017 l -0.121,0.051 c -1.254,0.537 -2.337,0.061 -2.725,-1.123 -0.278,-0.848 -0.127,-2.021 0.837,-2.727 l 0.263,-0.193 v -0.326 c 0,-0.8299999 1.154,-2.1289999 2.892,-2.1939999 0.252,-0.009 0.474,-0.012 0.732,-0.012 l 0.561,0.002 c 0.309,0.003 0.685,0.006 1.125,0.003 l 3.348,0.266 c 0.332,0 0.335,0.479 0.335,0.499 0,0.14 -0.036,0.271 -0.097,0.352 -0.037,0.049 -0.079,0.079 -0.174,0.079 -1.112,0 -1.855,0.228 -2.337,0.7159999 -0.653,0.662 -0.64,1.604 -0.627,2.603 l 0.004,1.104 h 0.644 c 0.231,0 0.469,0.012 0.732,0.024 0.348,0.016 0.738,0.033 1.206,0.033 3.37,0 4.897001,-1.438 5.584001,-2.645 0.947,-1.6619999 0.89,-3.8779999 -0.125,-6.2419999 1.445,1.316 2.88,3.08 3.436,4.029 -1.448,0.021 -2.066,1.2919999 -2.443,2.0669999 -0.163,0.335 -0.336,0.641 -0.516,0.929 -0.107,0.134 -0.2,0.278 -0.293,0.425 -1.095,1.522 -2.484001,2.28 -4.224001,2.28 z m 7.717001,2.96 c -0.78,0 -1.496,-0.502 -1.887,-1.287 l 0.381,-0.248 c 0.324,0.54 0.881,0.895 1.506,0.895 0.998,0 1.809,-0.889 1.809,-1.98 0,-0.331 -0.076,-0.653 -0.216,-0.938 l 0.369,-0.241 c 0.155,0.364 0.237,0.768 0.237,1.18 10e-4,1.443 -0.986,2.619 -2.199,2.619 z m 0.521,-2.621 c 0,0.376 -0.238,0.693 -0.521,0.693 -0.21,0 -0.395,-0.189 -0.472,-0.446 l 0.916,-0.599 c 0.048,0.106 0.077,0.225 0.077,0.352 z"
     id="path11"
     inkscape:connector-curvature="0" /><path
     d="m -69.907999,19.660625 h -13.722 c -0.228,0 -0.438,-0.124 -0.548,-0.324 -0.11,-0.2 -0.102,-0.444 0.021,-0.637 1.589,-2.497 4.287,-4.005 7.239,-4.055 0.05,-0.059 0.113,-0.116 0.194,-0.169 l 3.942,-6.8279999 c 0,-0.014 0,-0.028 0,-0.042 -0.431,-0.123 -0.89,-0.028 -1.235,0.235 -0.201,0.155 -0.475,0.172 -0.693,0.045 -0.219,-0.127 -0.34,-0.373 -0.307,-0.623 0.075,-0.562 -0.195,-1.11 -0.688,-1.396 -0.475,-0.274 -1.113,-0.232 -1.553,0.103 -0.237,0.18 -0.569,0.171 -0.792,-0.026 -0.223,-0.197 -0.278,-0.524 -0.128,-0.782 1.443,-2.498 4.135,-4.05 7.025,-4.05 1.009,0 1.989,0.183 2.921,0.546 l 0.05,-0.087 c 0.328,-0.57299999 1.127,-0.78699999 1.704,-0.458 0.29,0.167 0.497,0.437 0.583,0.76 0.086,0.323 0.041,0.659 -0.127,0.948 l -0.049,0.086 c 3.068,2.47 3.935,6.908 1.938,10.3639999 -0.149,0.258 -0.459,0.375 -0.742,0.279 -0.282,-0.096 -0.458,-0.378 -0.418,-0.674 0.075,-0.562 -0.196,-1.11 -0.688,-1.396 -0.477,-0.275 -1.114,-0.232 -1.553,0.103 -0.201,0.155 -0.475,0.172 -0.693,0.045 -0.219,-0.127 -0.34,-0.373 -0.307,-0.623 0.075,-0.562 -0.195,-1.1099999 -0.688,-1.3959999 -0.185,-0.106 -0.393,-0.164 -0.619,-0.172 l -3.435,5.9489999 c 1.601,0.695 2.966,1.852 3.896,3.313 0.123,0.192 0.13,0.436 0.021,0.636 -0.109,0.2 -0.321,0.326 -0.549,0.326 z m -12.471,-1.25 h 11.215 c -0.861,-0.959 -1.972,-1.692 -3.217,-2.11 -0.178,-0.06 -0.319,-0.196 -0.386,-0.372 -0.066,-0.175 -0.051,-0.371 0.043,-0.533 l 3.968,-6.8709999 c 0.095,-0.165 0.261,-0.278 0.45,-0.306 0.594,-0.089 1.206,0.021 1.708,0.309 0.624,0.36 1.058,0.943 1.236,1.6059999 0.668,-0.1779999 1.404,-0.082 2.005,0.266 0.316,0.183 0.583,0.423 0.794,0.701 0.777,-2.7539999 -0.244,-5.8229999 -2.683,-7.5119999 -0.255,-0.177 -0.34,-0.513 -0.206,-0.788 -0.171,0.254 -0.504,0.346 -0.785,0.216 -0.92,-0.435 -1.902,-0.654 -2.918,-0.654 -1.877,0 -3.655,0.773 -4.932,2.088 0.354,0.043 0.697,0.157 1.006,0.336 0.623,0.36 1.058,0.942 1.235,1.606 0.667,-0.179 1.404,-0.084 2.006,0.265 0.116,0.066 0.421,0.243 0.461,0.607 0.015,0.138 -0.042,0.314 -0.127,0.454 0.008,0.123 -0.019,0.248 -0.082,0.357 l -4.145,7.1779999 c -0.054,0.095 -0.132,0.172 -0.225,0.227 -0.211,0.414 -0.657,0.414 -0.814,0.414 -2.172,-10e-4 -4.195,0.922 -5.607,2.516 z"
     id="path13"
     inkscape:connector-curvature="0" /><path
     d="m -44.743999,3.9356251 c 0.128,-0.28 0.19,-0.556 0.19,-0.832 0,-1.221 -0.992,-2.21399999 -2.212,-2.21399999 -1.222,0 -2.215,0.99299999 -2.215,2.21399999 0,0.275 0.063,0.552 0.19,0.831 -5.968,0.982 -10.426,6.1979999 -10.426,12.2739999 v 2.15 c 0,0.43 0.351,0.781 0.782,0.781 h 23.336 c 0.431,0 0.781,-0.352 0.781,-0.781 v -2.15 c 0,-6.075 -4.458,-11.2909999 -10.426,-12.2729999 z m -12.882,11.4929999 c 0.404,-5.6889999 5.127,-10.1099999 10.861,-10.1099999 5.732,0 10.454,4.421 10.858,10.1099999 h -21.719 z m 10.86,-12.9769999 c 0.36,0 0.654,0.292 0.654,0.652 0,0.358 -0.293,0.651 -0.654,0.651 -0.36,0 -0.653,-0.293 -0.653,-0.651 10e-4,-0.36 0.294,-0.652 0.653,-0.652 z m 10.886,14.5389999 v 0.586 h -21.774 v -0.586 h 21.774 z"
     id="path15"
     inkscape:connector-curvature="0" /><g
     id="g17"
     transform="translate(-313.063,-719.63637)"><path
       d="m 266.245,726.554 c -2.46,0 -4.789,0.957 -6.538,2.698 -0.214,0.21 -0.214,0.552 -0.004,0.766 0.105,0.105 0.242,0.16 0.384,0.16 0.138,0 0.276,-0.053 0.38,-0.158 1.547,-1.538 3.604,-2.383 5.733,-2.385 0.329,0.03 0.611,-0.216 0.611,-0.537 0,-0.298 -0.268,-0.544 -0.566,-0.544 l 0,0 z"
       id="path19"
       inkscape:connector-curvature="0" /><path
       d="m 260.087,730.418 c -0.208,0 -0.405,-0.081 -0.554,-0.229 -0.149,-0.152 -0.23,-0.351 -0.228,-0.562 0.002,-0.207 0.085,-0.401 0.234,-0.547 1.792,-1.784 4.174,-2.767 6.706,-2.767 0.437,0 0.806,0.358 0.806,0.784 0,0.213 -0.084,0.41 -0.238,0.557 -0.149,0.145 -0.348,0.223 -0.56,0.223 l 0,0 -0.075,-0.003 c -2.066,0.003 -4.042,0.825 -5.542,2.315 -0.145,0.148 -0.34,0.229 -0.549,0.229 z m 6.158,-3.624 c -2.404,0 -4.666,0.933 -6.369,2.629 -0.058,0.056 -0.09,0.13 -0.091,0.209 0,0.082 0.031,0.159 0.089,0.218 0.112,0.112 0.31,0.113 0.422,10e-4 1.592,-1.583 3.688,-2.454 5.904,-2.456 0.128,-0.011 0.22,-0.03 0.28,-0.086 0.058,-0.057 0.09,-0.132 0.09,-0.211 0,-0.16 -0.154,-0.304 -0.325,-0.304 z"
       id="path21"
       inkscape:connector-curvature="0" /></g><g
     id="g23"
     transform="translate(-313.063,-719.63637)"><path
       d="m 300.045,730.743 c -0.32,-0.152 -0.727,-0.02 -0.898,0.292 -0.9,1.606 -2.602,2.604 -4.442,2.604 -1.84,0 -3.542,-0.998 -4.441,-2.604 -0.173,-0.312 -0.599,-0.437 -0.894,-0.296 -4.854,2.212 -4.91,7.257 -4.91,7.308 0,0.187 0.073,0.361 0.193,0.478 0.127,0.139 0.305,0.216 0.501,0.216 h 19.103 c 0.197,0 0.377,-0.077 0.488,-0.202 0.131,-0.13 0.203,-0.304 0.203,-0.491 -10e-4,-0.051 -0.055,-5.096 -4.903,-7.305 z m 3.455,6.616 h -17.592 c 0.188,-1.275 0.892,-3.651 3.499,-5.086 1.216,1.731 3.174,2.755 5.297,2.755 2.124,0 4.082,-1.023 5.298,-2.755 2.605,1.435 3.31,3.811 3.498,5.086 z"
       id="path25"
       inkscape:connector-curvature="0" /><path
       d="m 294.704,733.013 c 2.489,0 4.515,-2.024 4.515,-4.513 v -3.826 c 0,-2.488 -2.025,-4.513 -4.515,-4.513 -2.489,0 -4.513,2.024 -4.513,4.513 v 3.826 c 0,2.488 2.024,4.513 4.513,4.513 z m 0,-11.463 c 1.725,0 3.128,1.401 3.128,3.124 v 3.826 c 0,1.723 -1.403,3.124 -3.128,3.124 -1.724,0 -3.127,-1.401 -3.127,-3.124 v -3.826 c 0,-1.723 1.403,-3.124 3.127,-3.124 z"
       id="path27"
       inkscape:connector-curvature="0" /></g><path
     d="m 14.728,8.5046251 -4.764,-2.747 c -0.154,-0.089 -0.352,-0.089 -0.508,10e-4 -0.156,0.091 -0.253,0.26 -0.253,0.44 v 1.196 c -1.587,0.101 -3.091,0.685 -4.382,1.697 v -3.344 h 1.184 c 0.182,0 0.35,-0.098 0.438,-0.252 0.093,-0.157 0.093,-0.353 0.001,-0.51 L 3.694,0.22462511 c -0.172,-0.29999997 -0.706,-0.29899997 -0.879,0 L 0.069,4.9846251 c -0.092,0.158 -0.092,0.354 0,0.508 0.09,0.157 0.258,0.255 0.439,0.255 h 1.18 V 17.413625 c 0,0.28 0.229,0.509 0.508,0.509 h 2.118 c 0.279,0 0.507,-0.229 0.507,-0.509 v -2.133 c 0,-2.51 1.285,-3.748 4.382,-4.864 v 1.278 c 0,0.182 0.098,0.351 0.251,0.437 0.155,0.094 0.36,0.093 0.511,0.003 l 4.762,-2.7509999 c 0.157,-0.088 0.255,-0.256 0.255,-0.438 0,-0.181 -0.094,-0.345 -0.254,-0.441 z m -4.51,2.3119999 V 9.8836251 c 0,-0.28 -0.229,-0.535 -0.508,-0.509 -3.374,0.325 -5.842,3.3569999 -5.903,3.3979999 v 4.133 H 2.704 v -4.394 c -0.015,-0.075 -0.014,-0.151 0,-0.228 V 5.2376251 c 0,-0.279 -0.229,-0.507 -0.508,-0.507 H 1.385 l 1.869,-3.239 1.871,3.239 H 4.313 c -0.28,0 -0.508,0.228 -0.508,0.507 v 5.7939999 c 0.179,-0.17 3.321,-2.7709999 5.903,-2.6389999 0.279,0.015 0.508,-0.228 0.508,-0.508 v -0.811 l 3.24,1.869 -3.238,1.8739999 z"
     id="path29"
     inkscape:connector-curvature="0" /><path
     d="m 37.931998,5.8466251 c -0.368,1.242 0.928,1.902 1.012,1.678 0.1,-0.266 -0.301,-0.979 0.237,-1.516 0.995,-0.994 2.583003,1.168 1.394,2.152 -1.324,1.094 -3.382,0.793 -4.006,-0.798 -0.031,-0.321 -0.09,-0.637 -0.178,-0.942 0.91,-1.538 2.638,-2.82 2.078,-4.211 -1.068,-2.65799999 -4.155,-0.728 -3.375,0.719 0.42,0.781 1.367,0.477 1.3,0.326 -0.079,-0.178 -0.618,-0.33 -0.616,-0.85 0.003,-0.964 1.818,-0.682 1.715,0.371 -0.111,1.145 -1.207,1.979 -2.256,1.577 -0.248,-0.27 -0.525,-0.515 -0.83,-0.729 -0.672,-2.533 -0.201,-5.792 -2.232,-6.535 -3.695,-1.354 -5.033,3.55400001 -2.733,4.235 1.243,0.369 1.903,-0.92699999 1.678,-1.01099999 -0.266,-0.1 -0.978,0.301 -1.515,-0.237 -0.994,-0.995 1.168,-2.58300001 2.152,-1.39300001 1.1,1.32900001 0.791,3.399 -0.819,4.014 -0.389,0.038 -0.767,0.118 -1.13,0.237 -1.48,-0.925 -2.781,-2.45199999 -4.133,-1.909 -2.656,1.069 -0.676,4.067 0.77,3.288 0.782,-0.422 0.477,-1.369 0.326,-1.303 -0.176,0.081 -0.329,0.618 -0.85,0.617 -0.963,-0.003 -0.68,-1.818 0.373,-1.715 1.104,0.107 1.921,1.133 1.613,2.148 -0.268,0.25 -0.512,0.531 -0.725,0.84 -2.527,0.659 -5.701,0.182 -6.499,2.223 -1.526,3.9059999 3.555,5.0349999 4.237,2.734 0.368,-1.243 -0.928,-1.902 -1.012,-1.678 -0.1,0.266 0.301,0.978 -0.237,1.515 -0.995,0.9949999 -2.583,-1.169 -1.394,-2.151 1.33,-1.1 3.398,-0.791 4.014,0.816 0.039,0.367 0.116,0.723 0.23,1.062 -0.93,1.4649999 -2.516,2.7049999 -1.977,4.0469999 1.069,2.656 4.156,0.727 3.377,-0.719 -0.422,-0.782 -1.369,-0.478 -1.302,-0.326 0.081,0.176 0.618,0.329 0.616,0.85 -0.003,0.963 -1.818,0.68 -1.715,-0.373 0.107,-1.097 1.12,-1.91 2.129,-1.619 0.248,0.26 0.523,0.498 0.824,0.711 0.69,2.541 0.205,5.719 2.244,6.582 3.715,1.334 5.035,-3.555 2.734,-4.238 -1.244,-0.367 -1.904,0.928 -1.678,1.012 0.266,0.1 0.978,-0.3 1.514,0.237 0.996,0.996 -1.168,2.584 -2.152,1.394 -1.096,-1.326 -0.791,-3.389 0.807,-4.01 0.422,-0.037 0.834,-0.131 1.227,-0.271 1.49,0.923 2.746,2.557 4.104,2.012 2.658,-1.07 0.728,-4.156 -0.719,-3.376 -0.781,0.421 -0.477,1.368 -0.325,1.301 0.177,-0.079 0.329,-0.618 0.849,-0.616 0.965,0.003 0.682,1.818 -0.371,1.715 -1.173,-0.113 -2.021,-1.264 -1.543,-2.338 0.174,-0.183 0.336,-0.379 0.482,-0.586 2.531,-0.669 5.674003,-0.301 6.522003,-2.2289999 1.686,-3.831 -3.553003,-5.034 -4.236003,-2.734 z m -5.703,6.0019999 c -2.154,0.432 -4.396,-1.037 -4.814,-3.2139999 -0.426,-2.214 1.001,-4.393 3.23,-4.814 2.211,-0.431 4.354,1.004 4.795,3.214 0.443,2.217 -0.994,4.3719999 -3.211,4.8139999 z"
     id="path31"
     inkscape:connector-curvature="0" /></svg>